lrtp.form.improvement.consistent.realign.label,"Re-align Lincoln Avenue roadway to 3-lanes (left turn lane at signalized intersections and no right turn lanes)"
lrtp.form.improvement.consistent.realign.accept,"Implement -- Re-align Lincoln Avenue roadway"
lrtp.form.improvement.consistent.realign.modify,"Implement Modified -- Re-align Lincoln Avenue roadway"
lrtp.form.improvement.consistent.realign.reject,"Do Not Implement -- Re-align Lincoln Avenue roadway"
lrtp.form.improvement.consistent.implement.label,"Implement right-turn-only lanes entering the corridor at Green and Florida"
lrtp.form.improvement.consistent.implement.accept,"Implement -- Right-turn-only lanes"
lrtp.form.improvement.consistent.implement.modify,"Implement modified -- Right-turn-only lanes"
lrtp.form.improvement.consistent.implement.reject,"Do Not Implement -- Right-turn-only lanes"
lrtp.form.improvement.consistent.adjust.label,"Adjust signal timing along the corridor to accommodate smooth traffic flow with other changes"
lrtp.form.improvement.consistent.adjust.accept,"Implement -- Adjust signal timing"
lrtp.form.improvement.consistent.adjust.modify,"Implement Modified -- Adjust signal timing"
lrtp.form.improvement.consistent.adjust.reject,"Do Not Implement -- Adjust signal timing"
lrtp.form.improvement.consistent.limit.closing.label,"Limit access to side streets by closing off vehicle access at Lincoln Avenue"
lrtp.form.improvement.consistent.limit.closing.accept,"Implement -- Limit access to side streets,closing off vehicle access"
lrtp.form.improvement.consistent.limit.closing.modify,"Implement Modified -- Limit access to side streets,closing off vehicle access"
lrtp.form.improvement.consistent.limit.closing.reject,"Do Not Implement -- Limit access to side streets,closing off vehicle access"
lrtp.form.improvement.consistent.limit.order.label,"Limit access to side streets by implementing Right In/Right Out"
lrtp.form.improvement.consistent.limit.order.accept,"Implement -- Limit access to side streets,Right In/Right Out"
lrtp.form.improvement.consistent.limit.order.modify,"Implement Modified -- limit access to side streets,Right In/Right Out"
lrtp.form.improvement.consistent.limit.order.reject,"Do Not Implement -- limit access to side streets,Right In/Right Out"
lrtp.form.improvement.consistent.relocate.label,"Relocate or consolidate crosswalks"
lrtp.form.improvement.consistent.relocate.accept,"Implement -- Relocate or consolidate crosswalks"
lrtp.form.improvement.consistent.relocate.modify,"Implement Modified -- Relocate or consolidate crosswalks"
lrtp.form.improvement.consistent.relocate.reject,"Do Not Implement -- Relocate or consolidate crosswalks"
lrtp.form.improvement.consistent.beacons.label,"Install rectangular rapid flashing beacons (RRFB) at crosswalks"
lrtp.form.improvement.consistent.beacons.accept,"Implement -- Install rectangular rapid flashing beacons"
lrtp.form.improvement.consistent.beacons.modify,"Implement Modified -- Install rectangular rapid flashing beacons"
lrtp.form.improvement.consistent.beacons.reject,"Do Not Implement -- Install rectangular rapid flashing beacons"
lrtp.form.improvement.scenarios.one.install.label,"Install continuous on-street bike lanes in both directions from Green to Florida"
lrtp.form.improvement.scenarios.one.install.accept,"Implement -- Install Bike Lanes"
lrtp.form.improvement.scenarios.one.install.modify,"Implement Modified -- Install Bike Lanes"
lrtp.form.improvement.scenarios.one.install.reject,"Do Not Implement -- Install Bike Lanes"
lrtp.form.improvement.scenarios.two.install_green.label,"Implement -- Install on-street bike lanes in both directions between Green and Iowa"
lrtp.form.improvement.scenarios.two.install_green.accept,"Implement -- Install on-street bike lanes between Green and Iowa"
lrtp.form.improvement.scenarios.two.install_green.modify,"Implement Modified -- Install on-street bike lanes between Green and Iowa"
lrtp.form.improvement.scenarios.two.install_green.reject,"Do Not Implement -- Install on-street bike lanes between Green and Iowa"
lrtp.form.improvement.scenarios.two.install_pennsylvania.label,"Install on-street bike lanes in both directions between Pennsylvania and Florida"
lrtp.form.improvement.scenarios.two.install_pennsylvania.accept,"Implement -- Install on-street bike lanes - Pennsylvania and Florida"
lrtp.form.improvement.scenarios.two.install_pennsylvania.modify,"Implement Modified -- Install on-street bike lanes - Pennsylvania and Florida"
lrtp.form.improvement.scenarios.two.install_pennsylvania.reject,"Do Not Implement -- Install on-street bike lanes - Pennsylvania and Florida"
lrtp.form.improvement.scenarios.two.construct.label,"Construct shared-use path on west side of street from Iowa to Pennsylvania"
lrtp.form.improvement.scenarios.two.construct.accept,"Implement -- Construct shared-use path,Iowa to Pennsylvania"
lrtp.form.improvement.scenarios.two.construct.modify,"Implement Modified -- Construct shared-use path,Iowa to Pennsylvania"
lrtp.form.improvement.scenarios.two.construct.reject,"Do Not Implement -- Construct shared-use path,Iowa to Pennsylvania"
lrtp.form.improvement.scenarios.three.install.label,"Install on-street bike lanes in both directions between Green and Iowa"
lrtp.form.improvement.scenarios.three.install.accept,"Implement -- Install On-Street Bike Lanes"
lrtp.form.improvement.scenarios.three.install.modify,"Implement Modified -- Install On-Street Bike Lanes"
lrtp.form.improvement.scenarios.three.install.reject,"Do Not Implement -- Install On-Street Bike Lanes"
lrtp.form.improvement.scenarios.three.construct.label,"Construct shared-use path on west side of street from Iowa to Florida"
lrtp.form.improvement.scenarios.three.construct.accept,"Implement -- Construct Shared-Use Path,Iowa to Florida"
lrtp.form.improvement.scenarios.three.construct.modify,"Implement Modified -- Construct Shared-Use Path,Iowa to Florida"
lrtp.form.improvement.scenarios.three.construct.reject,"Do Not Implement -- Construct Shared-Use Path,Iowa to Florida"
lrtp.form.pedestrian.label,"Walking or Wheelchair"
lrtp.form.pedestrian.crosswalk.label,"Crosswalks"
lrtp.form.pedestrian.crosswalk.ok,"Crosswalk functions well"
lrtp.form.pedestrian.crosswalk.add,"Add a crosswalk here"
lrtp.form.pedestrian.crosswalk.pavement,"Fix uneven pavement in crosswalk"
lrtp.form.pedestrian.crosswalk.repaint,"Repaint crosswalk"
lrtp.form.pedestrian.crosswalk.median,"Add pedestrian refuge/median"
lrtp.form.pedestrian.crosswalk.distance,"Reduce crossing distance"
lrtp.form.pedestrian.curbramp.label,"Curb Ramps"
lrtp.form.pedestrian.curbramp.ok,"Curb ramp functions well"
lrtp.form.pedestrian.curbramp.add,"Add a curb ramp here"
lrtp.form.pedestrian.curbramp.design,"Change curb ramp design (please describe below)"
lrtp.form.pedestrian.curbramp.repair,"Repair or replace curb ramp"
lrtp.form.pedestrian.sidewalk.label,"Sidewalks"
lrtp.form.pedestrian.sidewalk.ok,"Sidewalk functions well"
lrtp.form.pedestrian.sidewalk.add,"Add a sidewalk here"
lrtp.form.pedestrian.sidewalk.obstruction,"Remove a sidewalk obstruction (please describe below)"
lrtp.form.pedestrian.sidewalk.repair,"Repair or replace sidewalk"
lrtp.form.pedestrian.sidewalk.widen,"Widen narrow sidewalk"
lrtp.form.pedestrian.sign.label,"Signs and Signals"
lrtp.form.pedestrian.sign.ok,"Signs and signals function well"
lrtp.form.pedestrian.sign.stop,"Add stop signs here"
lrtp.form.pedestrian.sign.pedestriansignal,"Add pedestrian signals here"
lrtp.form.pedestrian.sign.trafficsignal,"Add traffic signals here"
lrtp.form.pedestrian.sign.crossingtime,"Increase crossing time"
lrtp.form.pedestrian.sign.movesignal,"Move pedestrian signal or pushbutton"
lrtp.form.pedestrian.sign.speedlimit,"Reduce roadway speed limit"
lrtp.form.pedestrian.other.label,"Other"
lrtp.form.pedestrian.other.goodaccessibility,"Good accessibility for multiple modes here"
lrtp.form.pedestrian.other.lighting,"Add lighting here"
lrtp.form.pedestrian.other.roundabout,"Convert intersection to a roundabout"
lrtp.form.pedestrian.other.separation,"Increase separation between motorists and pedestrians"
lrtp.form.pedestrian.other.other,"Other (please describe below)"
lrtp.form.bicycle.label,"Bicycle"
lrtp.form.bicycle.facility.label,"Bike Lanes and Paths"
lrtp.form.bicycle.facility.ok,"Bike lanes and paths function well"
lrtp.form.bicycle.facility.onstreet,"Add an on-street bike lane"
lrtp.form.bicycle.facility.offstreet,"Add an off-street sidepath or trail"
lrtp.form.bicycle.facility.pavement,"Fix uneven pavement in bike lane or path"
lrtp.form.bicycle.facility.repair,"Repair or replace bike lanes or paths"
lrtp.form.bicycle.facility.barriers,"Add physical barriers to on-street bike lane"
lrtp.form.bicycle.parking.label,"Bike Parking"
lrtp.form.bicycle.parking.ok,"Bike parking functions well"
lrtp.form.bicycle.parking.add,"Add bike racks"
lrtp.form.bicycle.parking.change,"Change type of bike racks"
lrtp.form.bicycle.parking.repair,"Repair or replace bike racks"
lrtp.form.bicycle.sign.label,"Signs and Signals"
lrtp.form.bicycle.sign.ok,"Signs and signals function well"
lrtp.form.bicycle.sign.signal,"Add bike-activated traffic signals here"
lrtp.form.bicycle.sign.stop,"Add stop signs here"
lrtp.form.bicycle.sign.wayfinding,"Add or improve wayfinding signs for cyclists"
lrtp.form.bicycle.sign.crossingtime,"Increase crossing time"
lrtp.form.bicycle.sign.speedlimit,"Reduce speed limit"
lrtp.form.bicycle.other.label,"Other"
lrtp.form.bicycle.other.goodaccessibility,"Good accessibility for multiple modes here"
lrtp.form.bicycle.other.lighting,"Add lighting here"
lrtp.form.bicycle.other.roundabout,"Convert intersection to a roundabout"
lrtp.form.bicycle.other.visibility,"Improve visibility for cyclists"
lrtp.form.bicycle.other.separation,"Increase separation between motorists and cyclists"
lrtp.form.bicycle.other.other,"Other (please describe below)"
lrtp.form.bus.label,"Bus"
lrtp.form.bus.amenity.label,"Benches, Shelters, and Amenities"
lrtp.form.bus.amenity.ok,"Amenities at this stop function well"
lrtp.form.bus.amenity.bench,"Add a bench at this stop"
lrtp.form.bus.amenity.landingpad,"Add a landing pad at the stop for easier boarding"
lrtp.form.bus.amenity.shelter,"Add a shelter at this stop"
lrtp.form.bus.amenity.audiblesign,"Add audible signage at this stop for routes and information"
lrtp.form.bus.amenity.bikeparking,"Add bike parking at this stop"
lrtp.form.bus.amenity.lighting,"Add lighting at this stop"
lrtp.form.bus.stop.label,"Bus Stop Locations"
lrtp.form.bus.stop.ok,"Bus stop location functions well"
lrtp.form.bus.stop.safe,"I feel safe at this stop"
lrtp.form.bus.stop.unsafe,"I feel unsafe at this stop"
lrtp.form.bus.stop.add,"Add a stop here"
lrtp.form.bus.stop.move,"Move this stop (please describe below)"
lrtp.form.bus.stop.remove,"Remove this stop"
lrtp.form.bus.schedule.label,"Schedule and Service"
lrtp.form.bus.schedule.ok,"Bus service at this location functions well"
lrtp.form.bus.schedule.add,"Add a new route here (please describe below)"
lrtp.form.bus.schedule.frequency,"Increase bus frequency here"
lrtp.form.bus.schedule.weekday,"Increase weekday service hours here"
lrtp.form.bus.schedule.weekend,"Increase weekend service hours here"
lrtp.form.bus.schedule.delays,"Bus,Reduce bus delays here"
lrtp.form.bus.other.label,"Other"
lrtp.form.bus.other.goodaccessibility,"Good accessibility for multiple modes here"
lrtp.form.bus.other.pavement,"Improve pavement condition for buses"
lrtp.form.bus.other.separation,"Increase separation between buses and other roadway users"
lrtp.form.bus.other.conflicts,"Reduce conflicts between buses and other roadway users"
lrtp.form.bus.other.other,"Other (please describe below)"
lrtp.form.automobile.label,"Automobile"
lrtp.form.automobile.driving.label,"Driving Conditions"
lrtp.form.automobile.driving.ok,"Good automobile circulation here"
lrtp.form.automobile.driving.lighting,"Add street lighting"
lrtp.form.automobile.driving.design,"Change roadway design or width (please describe below)"
lrtp.form.automobile.driving.pavement,"Fix uneven pavement"
lrtp.form.automobile.driving.markings,"Improve pavement markings"
lrtp.form.automobile.driving.visibility,"Improve visibility for drivers"
lrtp.form.automobile.driving.speedlimit,"Reduce speed limit"
lrtp.form.automobile.driving.congestion,"Reduce traffic congestion"
lrtp.form.automobile.multimodal.label,"Pedestrian, Bike, and Bus Facilities"
lrtp.form.automobile.multimodal.ok,"Good accessibility for multiple modes here"
lrtp.form.automobile.multimodal.bikelane,"Add an on-street bike lane"
lrtp.form.automobile.multimodal.sidepath,"Add an off-street sidepath"
lrtp.form.automobile.multimodal.sidewalk,"Add an off-street sidewalk"
lrtp.form.automobile.multimodal.buslane,"Add a dedicated bus lane"
lrtp.form.automobile.sign.label,"Signs and Signals"
lrtp.form.automobile.sign.ok,"Signs and signals function well"
lrtp.form.automobile.sign.signal,"Improve signal sensor or timing here"
lrtp.form.automobile.sign.stop,"Add stop signs here"
lrtp.form.automobile.sign.wayfinding,"Add or improve wayfinding signs for drivers"
lrtp.form.automobile.sign.crossing,"Increase crossing time"
lrtp.form.automobile.sign.speedlimit,"Reduce speed limit"
lrtp.form.automobile.parking.label,"Parking"
lrtp.form.automobile.parking.ok,"Parking functions well"
lrtp.form.automobile.parking.add,"Add automobile parking here"
lrtp.form.automobile.parking.reduce,"Reduce automobile parking here"
lrtp.form.automobile.other.label,"Other"
lrtp.form.automobile.other.goodaccessibility,"Good accessibility for multiple modes here"
lrtp.form.automobile.other.roundabout,"Convert intersection to a roundabout"
lrtp.form.automobile.other.visibility,"Improve visibility for drivers"
lrtp.form.automobile.other.separation,"Increase separation between motorists and cyclists"
lrtp.form.automobile.other.other,"Other (please describe below)"